{
	"development": {
		"username": "221829_user",
		"password": "Ynov2020",
		"database": "exploamicale_bdd",
		"host": "mysql-exploamicale.alwaysdata.net",
		"dialect": "mysql",
		"operatorsAliases": false
	},
	"test": {
		"username": "221829_user",
		"password": "Ynov2020",
		"database": "exploamicale_bdd",
		"host": "mysql-exploamicale.alwaysdata.net",
		"dialect": "mysql",
		"operatorsAliases": false
	},
	"production": {
		"username": "221829_user",
		"password": "Ynov2020",
		"database": "exploamicale_bdd",
		"host": "mysql-exploamicale.alwaysdata.net",
		"dialect": "mysql",
		"operatorsAliases": false
	}
}
